<?xml version="1.0" encoding="UTF-8" standalone="no"?>
<!-- Created with Inkscape (http://www.inkscape.org/) -->

<svg
   width="10.36284mm"
   height="9.8565006mm"
   viewBox="0 0 10.36284 9.8565006"
   version="1.1"
   id="svg4881"
   inkscape:version="1.1 (c68e22c387, 2021-05-23)"
   sodipodi:docname="adjuntar.svg"
   xmlns:inkscape="http://www.inkscape.org/namespaces/inkscape"
   xmlns:sodipodi="http://sodipodi.sourceforge.net/DTD/sodipodi-0.dtd"
   xmlns="http://www.w3.org/2000/svg"
   xmlns:svg="http://www.w3.org/2000/svg">
  <sodipodi:namedview
     id="namedview4883"
     pagecolor="#ffffff"
     bordercolor="#666666"
     borderopacity="1.0"
     inkscape:pageshadow="2"
     inkscape:pageopacity="0.0"
     inkscape:pagecheckerboard="0"
     inkscape:document-units="mm"
     showgrid="false"
     fit-margin-top="0"
     fit-margin-left="0"
     fit-margin-right="0"
     fit-margin-bottom="0"
     inkscape:zoom="6.0150393"
     inkscape:cx="21.861869"
     inkscape:cy="18.952495"
     inkscape:window-width="1920"
     inkscape:window-height="1052"
     inkscape:window-x="1920"
     inkscape:window-y="0"
     inkscape:window-maximized="1"
     inkscape:current-layer="layer1" />
  <defs
     id="defs4878" />
  <g
     inkscape:label="Capa 1"
     inkscape:groupmode="layer"
     id="layer1"
     transform="translate(-130.65036,-44.689049)">
    <path
       d="m 140.53128,53.31647 c -0.0191,0.409222 -0.3496,0.734836 -0.75918,0.747183 h -7.88035 c -0.40957,-0.01235 -0.74048,-0.337961 -0.75953,-0.747183 v -2.74708 h 1.54235 c 0.4325,-3.53e-4 0.82655,0.248355 1.01247,0.638527 0.25682,0.56762 0.82338,0.930981 1.44568,0.927806 h 1.39806 c 0.62265,0.0032 1.18886,-0.360186 1.44604,-0.927806 0.18556,-0.390172 0.57961,-0.63888 1.01212,-0.638527 h 1.54234 z m -0.91616,-6.00075 c -0.0399,-0.08149 -0.1263,-0.129469 -0.21661,-0.120297 h -1.15676 c -0.13299,0 -0.24094,0.10795 -0.24094,0.240947 0,0.132997 0.10795,0.2413 0.24094,0.2413 h 1.00013 l 1.12042,2.409825 h -1.37336 c -0.62301,-0.0032 -1.18922,0.360186 -1.44604,0.927806 -0.18591,0.390172 -0.57997,0.638527 -1.01212,0.638527 h -1.39806 c -0.43215,0 -0.8262,-0.248355 -1.01212,-0.638527 -0.25647,-0.56762 -0.82303,-0.930981 -1.44603,-0.927806 h -1.34938 l 1.32539,-2.409825 h 0.77152 c 0.133,0 0.2406,-0.108303 0.2406,-0.2413 0,-0.132997 -0.1076,-0.240947 -0.2406,-0.240947 h -0.91581 c -0.0871,-0.0081 -0.1711,0.03387 -0.21696,0.108303 l -1.59067,2.916061 c -0.0279,0.02469 -0.0452,0.05927 -0.0483,0.09631 v 3.000375 c 0.0194,0.675569 0.56585,1.216378 1.24142,1.229078 h 7.88035 c 0.67557,-0.0127 1.22202,-0.553509 1.24107,-1.229078 v -3.000375 c -0.005,-0.03069 -0.0173,-0.05962 -0.036,-0.08431 z"
       style="fill:#ffffff;fill-opacity:1;fill-rule:nonzero;stroke:none;stroke-width:0.352778"
       id="path4320" />
    <path
       d="m 136.00066,44.763337 c -0.0854,-0.09349 -0.23036,-0.09948 -0.3235,-0.01376 -0.005,0.0042 -0.01,0.0088 -0.0141,0.01376 l -1.63865,1.651 c -0.0797,0.106186 -0.0582,0.257175 0.0483,0.337256 0.0854,0.06385 0.2032,0.06385 0.28892,0 l 1.22944,-1.229431 v 4.579055 c 0,0.132998 0.10795,0.240948 0.24059,0.240948 0.133,0 0.2413,-0.10795 0.2413,-0.240948 v -4.579055 l 1.22872,1.229431 c 0.10654,0.07973 0.25788,0.05821 0.33761,-0.04833 0.0642,-0.08573 0.0642,-0.203553 0,-0.288925 z"
       style="fill:#ffffff;fill-opacity:1;fill-rule:nonzero;stroke:none;stroke-width:0.352778"
       id="path4324" />
  </g>
</svg>
