<?xml version="1.0" encoding="utf-8"?>
<!-- Generator: Adobe Illustrator 22.0.0, SVG Export Plug-In . SVG Version: 6.00 Build 0)  -->
<svg version="1.1" id="Capa_1" xmlns="http://www.w3.org/2000/svg" xmlns:xlink="http://www.w3.org/1999/xlink" x="0px" y="0px"
	 viewBox="0 0 33.6 63.6" style="enable-background:new 0 0 33.6 63.6;" xml:space="preserve">
<style type="text/css">
	.st0{fill-rule:evenodd;clip-rule:evenodd;fill:#989898;}
	.st1{fill:none;}
</style>
<path class="st0" d="M3.9,0h25.9c1,0,2,0.5,2.7,1.2l0,0c0.7,0.7,1.1,1.7,1.1,2.8v55.6c0,0.3,0,3.2,0,3.2c0,0.2-0.1,0.4-0.2,0.6
	c-0.1,0.1-0.3,0.2-0.6,0.2h-3.7H29H3.9c-1.1,0-2-0.5-2.7-1.2v0C0.4,61.7,0,60.7,0,59.6V4c0-1.1,0.4-2.1,1.1-2.8v0
	C1.8,0.5,2.8,0,3.9,0 M13.1,17.6H8.2c-0.4,0-0.7,0.2-1,0.4c-0.3,0.3-0.4,0.6-0.4,1v4.3c0,0.4,0.1,0.7,0.4,1c0.2,0.3,0.6,0.4,1,0.4
	h4.9c0.4,0,0.7-0.2,1-0.4c0.2-0.3,0.4-0.6,0.4-1V19c0-0.4-0.1-0.8-0.4-1C13.8,17.8,13.5,17.6,13.1,17.6 M13.1,7H8.2
	c-0.4,0-0.7,0.2-1,0.4C7,7.6,6.8,8,6.8,8.4v4.3c0,0.4,0.1,0.8,0.4,1c0.2,0.2,0.6,0.4,1,0.4h4.9c0.4,0,0.7-0.2,1-0.4
	c0.2-0.3,0.4-0.6,0.4-1V8.4c0-0.4-0.1-0.8-0.4-1C13.8,7.1,13.5,7,13.1,7 M25.4,7h-4.9c-0.4,0-0.7,0.2-1,0.4c-0.2,0.2-0.4,0.6-0.4,1
	v4.3c0,0.4,0.2,0.8,0.4,1c0.2,0.2,0.6,0.4,1,0.4h4.9c0.4,0,0.7-0.2,1-0.4c0.2-0.3,0.4-0.6,0.4-1V8.4c0-0.4-0.2-0.8-0.4-1
	C26.2,7.1,25.8,7,25.4,7 M13.1,49.6H8.2c-0.4,0-0.7,0.2-1,0.4c-0.3,0.3-0.4,0.6-0.4,1v4.3c0,0.4,0.1,0.7,0.4,1
	c0.2,0.3,0.6,0.4,1,0.4h4.9c0.4,0,0.7-0.2,1-0.4c0.2-0.3,0.4-0.6,0.4-1V51c0-0.4-0.1-0.8-0.4-1C13.8,49.7,13.5,49.6,13.1,49.6
	 M25.4,49.6h-4.9c-0.4,0-0.7,0.2-1,0.4c-0.2,0.3-0.4,0.6-0.4,1v4.3c0,0.4,0.2,0.7,0.4,1c0.2,0.3,0.6,0.4,1,0.4h4.9
	c0.4,0,0.7-0.2,1-0.4c0.2-0.3,0.4-0.6,0.4-1V51c0-0.4-0.2-0.8-0.4-1C26.2,49.7,25.8,49.6,25.4,49.6 M13.1,38.9H8.2
	c-0.4,0-0.7,0.2-1,0.4c-0.3,0.3-0.4,0.6-0.4,1v4.3c0,0.4,0.1,0.8,0.4,1c0.2,0.2,0.6,0.4,1,0.4h4.9c0.4,0,0.7-0.2,1-0.4
	c0.2-0.3,0.4-0.6,0.4-1v-4.3c0-0.4-0.1-0.7-0.4-1C13.8,39.1,13.5,38.9,13.1,38.9 M25.4,38.9h-4.9c-0.4,0-0.7,0.2-1,0.4
	c-0.2,0.3-0.4,0.6-0.4,1v4.3c0,0.4,0.2,0.8,0.4,1c0.2,0.2,0.6,0.4,1,0.4h4.9c0.4,0,0.7-0.2,1-0.4c0.2-0.3,0.4-0.6,0.4-1v-4.3
	c0-0.4-0.2-0.7-0.4-1C26.2,39.1,25.8,38.9,25.4,38.9 M13.1,28.3H8.2c-0.4,0-0.7,0.2-1,0.4c-0.3,0.3-0.4,0.6-0.4,1v4.2
	c0,0.4,0.1,0.8,0.4,1c0.2,0.3,0.6,0.4,1,0.4h4.9c0.4,0,0.7-0.2,1-0.4c0.2-0.3,0.4-0.6,0.4-1v-4.2c0-0.4-0.1-0.8-0.4-1
	C13.8,28.4,13.5,28.3,13.1,28.3 M25.4,28.3h-4.9c-0.4,0-0.7,0.2-1,0.4c-0.2,0.3-0.4,0.6-0.4,1v4.2c0,0.4,0.2,0.8,0.4,1
	c0.2,0.3,0.6,0.4,1,0.4h4.9c0.4,0,0.7-0.2,1-0.4c0.2-0.3,0.4-0.6,0.4-1v-4.2c0-0.4-0.2-0.8-0.4-1C26.2,28.4,25.8,28.3,25.4,28.3
	 M25.4,17.6h-4.9c-0.4,0-0.7,0.2-1,0.4c-0.2,0.3-0.4,0.6-0.4,1v4.3c0,0.4,0.2,0.7,0.4,1c0.2,0.3,0.6,0.4,1,0.4h4.9
	c0.4,0,0.7-0.2,1-0.4c0.2-0.3,0.4-0.6,0.4-1V19c0-0.4-0.2-0.8-0.4-1C26.2,17.8,25.8,17.6,25.4,17.6"/>
<rect y="0" class="st1" width="33.6" height="63.6"/>
</svg>
