<?xml version="1.0" encoding="utf-8"?>
<!-- Generator: Adobe Illustrator 22.0.0, SVG Export Plug-In . SVG Version: 6.00 Build 0)  -->
<svg version="1.1" id="Capa_1" xmlns="http://www.w3.org/2000/svg" xmlns:xlink="http://www.w3.org/1999/xlink" x="0px" y="0px"
	 viewBox="0 0 512.1 510.2" style="enable-background:new 0 0 512.1 510.2;" xml:space="preserve">
<style type="text/css">
	.st0{clip-path:url(#SVGID_2_);fill:#C2B4D0;}
</style>
<g>
	<defs>
		<rect id="SVGID_1_" width="512.1" height="510.2"/>
	</defs>
	<clipPath id="SVGID_2_">
		<use xlink:href="#SVGID_1_"  style="overflow:visible;"/>
	</clipPath>
	<path class="st0" d="M388.3,53.5c6.9,4.9,6.8,10.9,5.2,17.8c-3.4,15.3-6.3,30.6-9.3,46c-1,4.9-3,8.8-8.2,10.3c-5,1.4-8.7-1-12-4.4
		c-20.2-20.8-40.4-41.6-60.6-62.4c-3.5-3.6-5.7-7.5-4.2-12.5c1.6-5.1,5.7-7,10.6-7.8c16.8-2.7,33.5-5.4,50.3-8.2
		c5.7-1,9.5,2.1,13.4,6.1c8.3-8.4,16.4-16.8,24.7-25C413.1-1.3,432.2-4.1,449.4,6c11.6,6.9,18.7,17.3,19.4,30.8
		c0.8,15.6,0.5,31.3,0.5,47c0,54.5,0,109,0,163.5v6.8c3.9,0,7.5-0.2,11.1,0c13.5,0.8,23.6,7,28.9,19.6c5.2,12.1,3.2,23.6-5.5,33.5
		c-3.1,3.5-7.4,6.3-11.6,8.3c-3,1.4-4.3,3.1-5.1,6c-8.5,29.9-17.3,59.7-25.5,89.7c-8.6,31.4-36.2,54.5-68.8,56.1
		c-0.5,0-0.9,0.3-1.9,0.6c4.2,8.5,8.4,16.7,12.5,25c2.8,5.6,2.4,10.4-1,13.9c-5.4,5.6-13.7,4.1-17.7-3.6
		c-5.3-10.2-10.5-20.4-15.4-30.8c-1.7-3.6-3.7-5.1-7.9-5.1c-70.3,0.1-140.6,0.1-211,0c-4,0-5.9,1.4-7.5,4.8
		c-5,10.5-10.2,20.9-15.6,31.3c-4,7.6-12.5,9-17.7,3.1c-3.5-4-3.4-8.5-1.2-13.1c3.4-6.9,6.9-13.7,10.3-20.5c0.8-1.6,1.5-3.3,1.9-4.3
		c-8.9-2.4-17.9-4-26.2-7.4c-22.3-9.1-36.7-25.9-43.4-49c-8.7-30-17.3-60.1-25.8-90.2c-0.9-3.2-2.1-5.3-5.6-6.7
		c-13-5.3-20.9-19-19.4-32.4c1.7-14.6,12.3-25.9,26.8-28.3c3.1-0.5,6.3-0.6,9.5-0.6c135,0,270,0,404.9,0h6.4c0.1-1.8,0.2-3.4,0.2-5
		c0-68.5,0-137,0-205.5c0-9.3-3-16.8-12-20.5c-9-3.8-16.5-0.8-23.1,5.8C405,36.9,396.9,44.8,388.3,53.5 M88.8,339.8
		c-7.4,0-12.3,6.1-10.2,13.6c4.5,16.5,9,33,14.2,49.3c4.2,13.1,13.9,20.3,27.6,21.9c6.8,0.8,12-2.8,12.9-8.8c1-6.2-2.3-10.9-9.6-12
		c-6.9-1.1-10.2-5-12-11.4c-3.9-14.6-8.3-29.1-12.5-43.6C97.3,342.7,93.8,339.8,88.8,339.8"/>
	<path class="st0" d="M257.3,136c-2.1,3.8-3.2,6.9-5.2,9.1c-6.4,6.8-13,13.3-19.7,19.8c-5.1,4.9-11.7,5-16,0.5
		c-4.2-4.4-4-10.5,0.8-15.6c6.6-6.8,13.3-13.5,20.1-20.1c3.5-3.4,8-5.1,12.2-2.3C252.6,129.4,254.6,132.9,257.3,136"/>
	<path class="st0" d="M266.2,212.8c-3.3-2.7-7.2-4.5-8.6-7.4c-1.3-2.8-1.3-8,0.5-10.1c7.5-8.6,15.7-16.7,24.1-24.4
		c3.7-3.4,9.7-2.4,13.2,1c3.5,3.4,4.2,9,1.5,13.2c-1,1.5-2.2,2.9-3.5,4.2c-5.8,5.9-11.6,11.9-17.7,17.5
		C273.2,209.1,270,210.5,266.2,212.8"/>
	<path class="st0" d="M310.4,104.1c2.6,2.1,6,3.9,8.1,6.7c2.4,3.3,2.2,7.7-0.6,10.7c-7.7,8.2-15.6,16.3-24,23.9
		c-3.9,3.6-10,2.5-13.6-1.2c-3.4-3.6-4.4-9.4-0.9-13.2c7.6-8.3,15.8-16.1,23.9-23.9C304.8,105.6,307.2,105.3,310.4,104.1"/>
</g>
</svg>
